{
    "openapi": "3.0.0",
    "info": {
        "title": "API RPPyC",
        "version": "1.0"
    },
    "servers": [
        {
            "url": "http://localhost/apirppc/public",
            "description": "Host de manera local"
        }
    ],
    "paths": {
        "/api/v1/titularfolio/{nu_folio}/{nom_tit}/{patern}/{matern}": {
            "get": {
                "summary": "Verificar folio del titular",
                "operationId": "App\\Http\\Controllers\\apirppcController::VerificacionFolioTitular",
                "parameters": [
                    {
                        "name": "nu_folio",
                        "in": "path",
                        "description": "Folio de registro asignado por RPPyC",
                        "required": true
                    },
                    {
                        "name": "nom_tit",
                        "in": "path",
                        "description": "Nombre(s) del titular",
                        "required": true
                    },
                    {
                        "name": "patern",
                        "in": "path",
                        "description": "Apellido paterno del titular",
                        "required": true
                    },
                    {
                        "name": "matern",
                        "in": "path",
                        "description": "Apellido materno del titular",
                        "required": true
                    }
                ],
                "responses": {
                    "200": {
                        "description": "Se muestra mensaje indicando que el folio le pertenece al titular si los parametros son correctos \r\n    *         en caso contrario muestra mensaje que no le pertenece"
                    }
                },
                "security": [
                    {
                        "api_key": []
                    }
                ]
            }
        },
        "/api/v1/datosinmueble/{nu_folio}/{nu_ofic}": {
            "get": {
                "summary": "Obtener datos del inmueble con el folio y número de oficina",
                "operationId": "App\\Http\\Controllers\\apirppcController::DatosDelInmueble",
                "parameters": [
                    {
                        "name": "nu_folio",
                        "in": "path",
                        "description": "Folio de registro asignado por RPPyC",
                        "required": true
                    },
                    {
                        "name": "nu_ofic",
                        "in": "path",
                        "description": "Número de oficina del registro",
                        "required": true
                    }
                ],
                "responses": {
                    "200": {
                        "description": "Se muestra datos del inmueble si los parametros son correctos \r\n    *         en caso contrario muestra mensaje de error"
                    }
                },
                "security": [
                    {
                        "api_key": []
                    }
                ]
            }
        }
    },
    "components": {
        "securitySchemes": {
            "api_key": {
                "type": "apiKey",
                "name": "api_key",
                "in": "query"
            }
        }
    }
}